module gitlab.com/ignitionrobotics/web/fuelserver

go 1.14

require (
	github.com/Knetic/govaluate v3.0.1-0.20171022003610-9aa49832a739+incompatible
	github.com/Selvatico/go-mocket v1.0.4
	github.com/auth0/go-jwt-middleware v0.0.0-20200507191422-d30d7b9ece63
	github.com/aws/aws-sdk-go v1.31.15
	github.com/casbin/casbin v1.9.1
	github.com/casbin/casbin/v2 v2.6.11
	github.com/casbin/gorm-adapter v1.0.0
	github.com/casbin/gorm-adapter/v2 v2.1.0
	github.com/codegangsta/negroni v1.0.0
	github.com/davecgh/go-spew v1.1.1
	github.com/dgrijalva/jwt-go v3.2.0+incompatible
	github.com/elastic/go-elasticsearch/v8 v8.0.0-20200508105138-fc4f6f3c7fc3
	github.com/emirpasic/gods v1.12.0
	github.com/go-ini/ini v1.57.0
	github.com/go-playground/form v3.1.4+incompatible
	github.com/go-playground/locales v0.13.0
	github.com/go-playground/universal-translator v0.17.0
	github.com/go-sql-driver/mysql v1.5.0
	github.com/golang/protobuf v1.4.2
	github.com/golangci/golangci-lint v1.25.1 // indirect
	github.com/gorilla/context v1.1.1
	github.com/gorilla/mux v1.7.4
	github.com/gosimple/slug v1.9.0
	github.com/jbenet/go-context v0.0.0-20150711004518-d14ea06fba99
	github.com/jinzhu/gorm v1.9.12
	github.com/jinzhu/inflection v1.0.0
	github.com/jmespath/go-jmespath v0.3.0
	github.com/jpillora/go-ogle-analytics v0.0.0-20161213085824-14b04e0594ef
	github.com/kevinburke/ssh_config v0.0.0-20190725054713-01f96b0aa0cd
	github.com/leodido/go-urn v1.2.0 // indirect
	github.com/lib/pq v1.7.0
	github.com/mitchellh/go-homedir v1.1.0
	github.com/pelletier/go-buffruneio v0.3.0
	github.com/pkg/errors v0.9.1
	github.com/pmezard/go-difflib v1.0.0
	github.com/prprprus/scheduler v0.5.0 // indirect
	github.com/rainycape/unidecode v0.0.0-20150907023854-cb7f23ec59be
	github.com/rollbar/rollbar-go v1.2.0
	github.com/satori/go.uuid v1.2.0
	github.com/sergi/go-diff v1.1.0
	github.com/src-d/gcfg v1.4.0
	github.com/stretchr/testify v1.5.1
	github.com/xanzy/ssh-agent v0.2.1
	gitlab.com/ignitionrobotics/web/ign-go v0.0.0-20200804201637-78fc7e089169
	golang.org/x/crypto v0.0.0-20200622213623-75b288015ac9
	golang.org/x/lint v0.0.0-20200302205851-738671d3881b // indirect
	golang.org/x/net v0.0.0-20200625001655-4c5254603344
	golang.org/x/sys v0.0.0-20200615200032-f1bc736245b1
	golang.org/x/text v0.3.2
	golang.org/x/tools v0.0.0-20200818005847-188abfa75333 // indirect
	google.golang.org/appengine v1.6.6
	google.golang.org/protobuf v1.25.0
	gopkg.in/go-playground/validator.v9 v9.31.0
	gopkg.in/src-d/go-billy.v4 v4.3.2
	gopkg.in/src-d/go-git.v4 v4.13.1
	gopkg.in/warnings.v0 v0.1.2
)
